C:\study\java\javastudy\java_test_demo\testcase\src\main\java\com\course\model\User.java
C:\study\java\javastudy\java_test_demo\testcase\src\main\java\com\course\api\GetUserInfo.java
C:\study\java\javastudy\java_test_demo\testcase\src\main\java\com\course\utils\HttpClientUtil.java
C:\study\java\javastudy\java_test_demo\testcase\src\main\java\com\course\model\GetUserInfoCase.java
C:\study\java\javastudy\java_test_demo\testcase\src\main\java\com\course\utils\DatabaseUtil.java
C:\study\java\javastudy\java_test_demo\testcase\src\main\java\com\course\model\LoginCase.java
C:\study\java\javastudy\java_test_demo\testcase\src\main\java\com\course\config\ExtentTestNGIReporterListener.java
C:\study\java\javastudy\java_test_demo\testcase\src\main\java\com\course\api\Login.java
C:\study\java\javastudy\java_test_demo\testcase\src\main\java\com\course\model\GetUserListCase.java
C:\study\java\javastudy\java_test_demo\testcase\src\main\java\com\course\utils\ConfigFileUtil.java
C:\study\java\javastudy\java_test_demo\testcase\src\main\java\com\course\api\GetUserList.java
C:\study\java\javastudy\java_test_demo\testcase\src\main\java\com\course\config\TestConfig.java
C:\study\java\javastudy\java_test_demo\testcase\src\main\java\com\course\model\AddUserCase.java
C:\study\java\javastudy\java_test_demo\testcase\src\main\java\com\course\api\AddUser.java
C:\study\java\javastudy\java_test_demo\testcase\src\main\java\com\course\model\InferFaceName.java
